# author: pinto
# adapted by Nikolai V. Chr.

var main_update_rate = 0.3;
var write_rate = 10;

var outstr = "";

var timestamp = "";
var output_file = "";
var f = "";
var myplaneID = int(rand()*10000);
var starttime = 0;
var writetime = 0;

seen_ids = [];

var tacobj = {
    tacviewID: 0,
    lat: 0,
    lon: 0,
    alt: 0,
    roll: 0,
    pitch: 0,
    heading: 0,
    speed: -1,
    valid: 0,
};

var lat = 0;
var lon = 0;
var alt = 0;
var roll = 0;
var pitch = 0;
var heading = 0;
var speed = 0;
var mutexWrite = thread.newlock();

var startwrite = func() {
    timestamp = getprop("/sim/time/utc/year") ~ "-" ~ getprop("/sim/time/utc/month") ~ "-" ~ getprop("/sim/time/utc/day") ~ "T";
    timestamp = timestamp ~ getprop("/sim/time/utc/hour") ~ ":" ~ getprop("/sim/time/utc/minute") ~ ":" ~ getprop("/sim/time/utc/second") ~ "Z";
    filetimestamp = string.replace(timestamp,":","-");
    output_file = getprop("/sim/fg-home") ~ "/Export/tacview-f16-" ~ filetimestamp ~ ".acmi";
    # create the file
    f = io.open(output_file, "w");
    io.close(f);
    var ownship = "F-16C";
    if (getprop("sim/variant-id")<3) {
        ownship = "F-16A";
    }
    var color = ",Color=Blue";
    if (left(getprop("sim/multiplay/callsign"),5)=="OPFOR") {
        color=",Color=Red";
    }
    var meta = sprintf(",DataSource=FlightGear %s,DataRecorder=%s v%s", getprop("sim/version/flightgear"), getprop("sim/description"), getprop("sim/aircraft-version"));
    thread.lock(mutexWrite);
    write("FileType=text/acmi/tacview\nFileVersion=2.1\n");
    write("0,ReferenceTime=" ~ timestamp ~ meta ~ "\n#0\n");
    write(myplaneID ~ ",T=" ~ getLon() ~ "|" ~ getLat() ~ "|" ~ getAlt() ~ "|" ~ getRoll() ~ "|" ~ getPitch() ~ "|" ~ getHeading() ~ ",Name="~ownship~",CallSign="~getprop("/sim/multiplay/callsign")~color~"\n"); #
    thread.unlock(mutexWrite);
    starttime = systime();
    setprop("/sim/screen/black","Starting Tacview recording");
    settimer(func(){mainloop();}, main_update_rate);
}

var stopwrite = func() {
    setprop("/sim/screen/black","Stopping Tacview recording");
    writetofile();
    starttime = 0;
    seen_ids = [];
    explo_arr = [];
    explosion_timeout_loop(1);
}

var mainloop = func() {
    if (!starttime) {
        return;
    }
    settimer(func(){mainloop();}, main_update_rate);
    if (systime() - writetime > write_rate) {
        writetofile();
    }
    thread.lock(mutexWrite);
    write("#" ~ (systime() - starttime)~"\n");
    thread.unlock(mutexWrite);
    writeMyPlanePos();
    writeMyPlaneAttributes();
    foreach (var cx; radar_system.getCompleteList()) {
        if (cx["prop"] != nil and cx.prop.getName() == "multiplayer" and getprop("sim/multiplay/txhost") == "mpserver.opredflag.com") {
            continue;
        }
        var color = ",Color=Blue";
        if (left(cx.get_Callsign(),5)=="OPFOR" or left(cx.get_Callsign(),4)=="OPFR") {
            color=",Color=Red";
        }
        thread.lock(mutexWrite);
        if (find_in_array(seen_ids, cx.tacobj.tacviewID) == -1) {
            append(seen_ids, cx.tacobj.tacviewID);
            var model_is = cx.getModel();
            if (model_is=="Mig-28") {
                model_is = "F-16C";
                color=",Color=Red";
            }
            write(cx.tacobj.tacviewID ~ ",Name="~ model_is~ ",CallSign=" ~ cx.get_Callsign() ~color~"\n")
        }
        if (cx.tacobj.valid) {
            var cxC = cx.getCoord();
            lon = cxC.lon();
            lat = cxC.lat();
            alt = cxC.alt();
            roll = cx.get_Roll();
            pitch = cx.get_Pitch();
            heading = cx.get_heading();
            speed = cx.get_Speed()*KT2MPS;
            
            write(cx.tacobj.tacviewID ~ ",T=");
            if (lon != cx.tacobj.lon) {
                write(sprintf("%.6f",lon));
                cx.tacobj.lon = lon;
            }
            write("|");
            if (lat != cx.tacobj.lat) {
                write(sprintf("%.6f",lat));
                cx.tacobj.lat = lat;
            }
            write("|");
            if (alt != cx.tacobj.alt) {
                write(sprintf("%.1f",alt));
                cx.tacobj.alt = alt;
            }
            write("|");
            if (roll != cx.tacobj.roll) {
                write(sprintf("%.1f",roll));
                cx.tacobj.roll = roll;
            }
            write("|");
            if (pitch != cx.tacobj.pitch) {
                write(sprintf("%.1f",pitch));
                cx.tacobj.pitch = pitch;
            }
            write("|");
            if (heading != cx.tacobj.heading) {
                write(sprintf("%.1f",heading));
                cx.tacobj.heading = heading;
            }
            if (speed != cx.tacobj.speed) {
                write(sprintf(",TAS=%.1f",speed));
                cx.tacobj.speed = speed;
            }
            write("\n");
        }
        thread.unlock(mutexWrite);
    }
    explosion_timeout_loop();
}

var writeMyPlanePos = func() {
    thread.lock(mutexWrite);
    write(myplaneID ~ ",T=" ~ getLon() ~ "|" ~ getLat() ~ "|" ~ getAlt() ~ "|" ~ getRoll() ~ "|" ~ getPitch() ~ "|" ~ getHeading() ~ "\n");
    thread.unlock(mutexWrite);
}

var writeMyPlaneAttributes = func() {
    var tgt = "";
    if(radar_system.apg68Radar.getPriorityTarget() != nil) {
        tgt= ",FocusedTarget="~radar_system.apg68Radar.getPriorityTarget().tacobj.tacviewID;
    }
    var rmode = ",RadarMode=1";
    if (getprop("sim/multiplay/generic/int[2]")) {
        rmode = ",RadarMode=0";
    }
    var rrange = ",RadarRange="~rounder(getprop("instrumentation/radar/radar2-range")*NM2M,1);
    var fuel = ",FuelWeight="~rounder(0.4535*getprop("/consumables/fuel/total-fuel-lbs"),1);
    var gear = ",LandingGear="~rounder(getprop("gear/gear[0]/position-norm"),0.01);
    var str = myplaneID ~ fuel~rmode~rrange~gear~",TAS="~getTas()~",CAS="~getCas()~",MACH="~getMach()~",AOA="~getAoA()~",HDG="~getHeading()~tgt~"\n";#",Throttle="~getThrottle()~",Afterburner="~getAfterburner()~
    thread.lock(mutexWrite);
    write(str);
    thread.unlock(mutexWrite);
}

explo = {
    tacviewID: 0,
    time: 0,
};

var explo_arr = [];

# needs threadlocked before calling
var writeExplosion = func(lat,lon,altm,rad) {
    var e = {parents:[explo]};
    e.tacviewID = 21000 + int(math.floor(rand()*20000));
    e.time = systime();
    append(explo_arr, e);
    write("#" ~ (systime() - starttime)~"\n");
    write(e.tacviewID ~",T="~lon~"|"~lat~"|"~altm~",Radius="~rad~",Type=Explosion\n");
}

var explosion_timeout_loop = func(all = 0) {
    foreach(var e; explo_arr) {
        if (e.time) {
            if (systime() - e.time > 15 or all) {
                thread.lock(mutexWrite);
                write("#" ~ (systime() - starttime)~"\n");
                write("-"~e.tacviewID);
                thread.unlock(mutexWrite);
                e.time = 0;
            }
        }
    }
}

var write = func(str) {
    outstr = outstr ~ str;
}

var writetofile = func() {
    if (outstr == "") {
        return;
    }
    writetime = systime();
    f = io.open(output_file, "a");
    io.write(f, outstr);
    io.close(f);
    outstr = "";
}

var getLat = func() {
    return getprop("/position/latitude-deg");
}

var getLon = func() {
    return getprop("/position/longitude-deg");
}

var getAlt = func() {
    return rounder(getprop("/position/altitude-ft") * FT2M,0.01);
}

var getRoll = func() {
    return rounder(getprop("/orientation/roll-deg"),0.01);
}

var getPitch = func() {
    return rounder(getprop("/orientation/pitch-deg"),0.01);
}

var getHeading = func() {
    return rounder(getprop("/orientation/heading-deg"),0.01);
}

var getTas = func() {
    return rounder(getprop("fdm/jsbsim/velocities/vtrue-kts") * KT2MPS,1.0);
}

var getCas = func() {
    return rounder(getprop("fdm/jsbsim/velocities/vc-kts") * KT2MPS,1.0);
}

var getMach = func() {
    return rounder(getprop("/velocities/mach"),0.001);
}

var getAoA = func() {
    return rounder(getprop("/orientation/alpha-deg"),0.01);
}

#var getThrottle = func() {
#    return rounder(getprop("velocities/thrust"),0.01);
#}

#var getAfterburner = func() {
#    return getprop("velocities/thrust")>0.61*0.61;
#}

var rounder = func(x, p) {
    v = math.mod(x, p);
    if ( v <= (p * 0.5) ) {
        x = x - v;
    } else {
        x = (x + p) - v;
    }
}

var find_in_array = func(arr,val) {
    forindex(var i; arr) {
        if ( arr[i] == val ) {
            return i;
        }
    }
    return -1;
}

#setlistener("/controls/armament/pickle", func() {
#    if (!starttime) {
#        return;
#    }
#    thread.lock(mutexWrite);
#    write("#" ~ (systime() - starttime)~"\n");
#    write("0,Event=Message|"~ myplaneID ~ "|Pickle, selection at " ~ (getprop("controls/armament/pylon-knob") + 1) ~ "\n");
#    thread.unlock(mutexWrite);
#},0,0);

setlistener("/controls/armament/trigger", func(p) {
    if (!starttime) {
        return;
    }
    thread.lock(mutexWrite);
    if (p.getValue()) {
        write("#" ~ (systime() - starttime)~"\n");
        write("0,Event=Message|"~ myplaneID ~ "|Trigger pressed.\n");
    } else {
        write("#" ~ (systime() - starttime)~"\n");
        write("0,Event=Message|"~ myplaneID ~ "|Trigger released.\n");
    }
    thread.unlock(mutexWrite);
},0,0);

setlistener("/sim/multiplay/chat-history", func(p) {
    if (!starttime) {
        return;
    }
    var hist_vector = split("\n",p.getValue());
    if (size(hist_vector) > 0) {
        var last = hist_vector[size(hist_vector)-1];
        last = string.replace(last,",",chr(92)~chr(44));#"\x5C"~"\x2C"   
        thread.lock(mutexWrite);
        write("#" ~ (systime() - tacview.starttime)~"\n");
        write("0,Event=Message|Chat ["~last~"]\n");
        thread.unlock(mutexWrite);
    }
},0,0);


var msg = func (txt) {
    if (!starttime) {
        return;
    }
    thread.lock(mutexWrite);
    write("#" ~ (systime() - tacview.starttime)~"\n");
    write("0,Event=Message|"~myplaneID~"|AI ["~txt~"]\n");
    thread.unlock(mutexWrite);
}

setlistener("damage/sounds/explode-on", func(p) {
    if (!starttime) {
        return;
    }
    
    if (p.getValue()) {
        thread.lock(mutexWrite);
        write("#" ~ (systime() - tacview.starttime)~"\n");
        write("0,Event=Destroyed|"~myplaneID~"\n");
        thread.unlock(mutexWrite);
    }
},0,0);
